stay180
…
Main Arguments:
  mtry = tune()
  trees = 1000
  min_n = tune()
  tree_depth = tune()
  learn_rate = tune()
  loss_reduction = tune()
  sample_size = tune()

Computational engine: xgboost 

# Tuning results
# Bootstrap sampling 
# A tibble: 25 × 4
   splits           id          .metrics           .notes          
   <list>           <chr>       <list>             <list>          
 1 <split [117/43]> Bootstrap01 <tibble [60 × 10]> <tibble [0 × 3]>
 2 <split [117/44]> Bootstrap02 <tibble [60 × 10]> <tibble [0 × 3]>
 3 <split [117/36]> Bootstrap03 <tibble [60 × 10]> <tibble [0 × 3]>
 4 <split [117/43]> Bootstrap04 <tibble [60 × 10]> <tibble [0 × 3]>
 5 <split [117/41]> Bootstrap05 <tibble [60 × 10]> <tibble [0 × 3]>
 6 <split [117/48]> Bootstrap06 <tibble [60 × 10]> <tibble [0 × 3]>
 7 <split [117/49]> Bootstrap07 <tibble [60 × 10]> <tibble [0 × 3]>
 8 <split [117/40]> Bootstrap08 <tibble [60 × 10]> <tibble [0 × 3]>
 9 <split [117/44]> Bootstrap09 <tibble [60 × 10]> <tibble [0 × 3]>
10 <split [117/41]> Bootstrap10 <tibble [60 × 10]> <tibble [0 × 3]>
# ℹ 15 more rows
…
── Model ───────────────────────────────────────────────────────────────────────
Logistic Regression Model Specification (classification)

Main Arguments:
  penalty = tune()
  mixture = tune()

Computational engine: glmnet 

# Tuning results
# Bootstrap sampling 
# A tibble: 25 × 4
   splits           id          .metrics           .notes          
   <list>           <chr>       <list>             <list>          
 1 <split [117/43]> Bootstrap01 <tibble [800 × 6]> <tibble [0 × 3]>
 2 <split [117/44]> Bootstrap02 <tibble [800 × 6]> <tibble [0 × 3]>
 3 <split [117/36]> Bootstrap03 <tibble [800 × 6]> <tibble [0 × 3]>
 4 <split [117/43]> Bootstrap04 <tibble [800 × 6]> <tibble [0 × 3]>
 5 <split [117/41]> Bootstrap05 <tibble [800 × 6]> <tibble [0 × 3]>
 6 <split [117/48]> Bootstrap06 <tibble [800 × 6]> <tibble [0 × 3]>
 7 <split [117/49]> Bootstrap07 <tibble [800 × 6]> <tibble [0 × 3]>
 8 <split [117/40]> Bootstrap08 <tibble [800 × 6]> <tibble [0 × 3]>
 9 <split [117/44]> Bootstrap09 <tibble [800 × 6]> <tibble [0 × 3]>
10 <split [117/41]> Bootstrap10 <tibble [800 × 6]> <tibble [0 × 3]>
# ℹ 15 more rows
…
── Model ───────────────────────────────────────────────────────────────────────
Multinomial Regression Model Specification (classification)

Main Arguments:
  penalty = tune()
  mixture = 1

Computational engine: glmnet 

# A tibble: 50 × 1
    penalty
      <dbl>
 1 1   e-10
 2 1.60e-10
 3 2.56e-10
 4 4.09e-10
 5 6.55e-10
 6 1.05e- 9
 7 1.68e- 9
 8 2.68e- 9
 9 4.29e- 9
10 6.87e- 9
# ℹ 40 more rows

# A tibble: 100 × 7
    penalty .metric  .estimator  mean     n std_err .config              
      <dbl> <chr>    <chr>      <dbl> <int>   <dbl> <chr>                
 1 1   e-10 accuracy binary     0.701    25  0.0136 Preprocessor1_Model01
 2 1   e-10 roc_auc  binary     0.694    25  0.0153 Preprocessor1_Model01
 3 1.60e-10 accuracy binary     0.701    25  0.0136 Preprocessor1_Model02
 4 1.60e-10 roc_auc  binary     0.694    25  0.0153 Preprocessor1_Model02
 5 2.56e-10 accuracy binary     0.701    25  0.0136 Preprocessor1_Model03
 6 2.56e-10 roc_auc  binary     0.694    25  0.0153 Preprocessor1_Model03
 7 4.09e-10 accuracy binary     0.701    25  0.0136 Preprocessor1_Model04
 8 4.09e-10 roc_auc  binary     0.694    25  0.0153 Preprocessor1_Model04
 9 6.55e-10 accuracy binary     0.701    25  0.0136 Preprocessor1_Model05
10 6.55e-10 roc_auc  binary     0.694    25  0.0153 Preprocessor1_Model05
# ℹ 90 more rows
…
── Model ───────────────────────────────────────────────────────────────────────
Radial Basis Function Support Vector Machine Model Specification (classification)

Main Arguments:
  cost = tune()
  rbf_sigma = tune()

Computational engine: kernlab 

# Tuning results
# Bootstrap sampling 
# A tibble: 25 × 4
   splits           id          .metrics           .notes            
   <list>           <chr>       <list>             <list>            
 1 <split [117/43]> Bootstrap01 <tibble [200 × 6]> <tibble [100 × 3]>
 2 <split [117/44]> Bootstrap02 <tibble [200 × 6]> <tibble [100 × 3]>
 3 <split [117/36]> Bootstrap03 <tibble [200 × 6]> <tibble [100 × 3]>
 4 <split [117/43]> Bootstrap04 <tibble [200 × 6]> <tibble [100 × 3]>
 5 <split [117/41]> Bootstrap05 <tibble [200 × 6]> <tibble [100 × 3]>
 6 <split [117/48]> Bootstrap06 <tibble [200 × 6]> <tibble [100 × 3]>
 7 <split [117/49]> Bootstrap07 <tibble [200 × 6]> <tibble [100 × 3]>
 8 <split [117/40]> Bootstrap08 <tibble [200 × 6]> <tibble [100 × 3]>
 9 <split [117/44]> Bootstrap09 <tibble [200 × 6]> <tibble [100 × 3]>
10 <split [117/41]> Bootstrap10 <tibble [200 × 6]> <tibble [100 × 3]>
# ℹ 15 more rows
…
