ml - classification
…
# Resampling results
# Manual resampling 
# A tibble: 1 × 6
  splits          id               .metrics .notes   .predictions .workflow 
  <list>          <chr>            <list>   <list>   <list>       <list>    
1 <split [87/30]> train/test split <tibble> <tibble> <tibble>     <workflow>

# A tibble: 1 × 3
  .metric     .estimator .estimate
  <chr>       <chr>          <dbl>
1 mn_log_loss multiclass     0.914

# A tibble: 30 × 27
   id         .pred_1 .pred_2 .pred_3  .row .pred_class phase1_3 .config correct
   <chr>        <dbl>   <dbl>   <dbl> <int> <fct>       <fct>    <chr>   <lgl>  
 1 train/tes…   0.562   0.296   0.142     1 1           1        Prepro… TRUE   
 2 train/tes…   0.562   0.296   0.142     3 1           1        Prepro… TRUE   
 3 train/tes…   0.637   0.230   0.133     4 1           1        Prepro… TRUE   
 4 train/tes…   0.559   0.298   0.143     7 1           3        Prepro… FALSE  
 5 train/tes…   0.559   0.298   0.143     8 1           3        Prepro… FALSE  
 6 train/tes…   0.559   0.298   0.143    14 1           2        Prepro… FALSE  
 7 train/tes…   0.562   0.296   0.142    22 1           1        Prepro… TRUE   
 8 train/tes…   0.637   0.230   0.133    27 1           2        Prepro… FALSE  
 9 train/tes…   0.562   0.296   0.142    28 1           3        Prepro… FALSE  
10 train/tes…   0.562   0.296   0.142    34 1           1        Prepro… TRUE   
# ℹ 20 more rows
# ℹ 18 more variables: client_id <fct>, sex <fct>, marital_status <fct>,
#   grade <fct>, race <fct>, ethnicity <fct>, religion <fct>,
#   dsm_primary <fct>, dsm_secondary <fct>, dsm_overall <fct>,
#   re_start_house <fct>, primary_behavior <fct>, secondary_behavior <fct>,
#   bigs_sum <fct>, dass_anxiety_sum <fct>, dass_dep_sum <fct>,
#   dass_stress_sum <fct>, sog_sum <fct>
…
# A tibble: 1 × 3
  .metric     .estimator .estimate
  <chr>       <chr>          <dbl>
1 mn_log_loss multiclass     0.730

# A tibble: 1 × 3
  .metric     .estimator .estimate
  <chr>       <chr>          <dbl>
1 mn_log_loss multiclass     0.730

# A tibble: 30 × 27
   id         .pred_1 .pred_2 .pred_3  .row .pred_class phase1_3 .config correct
   <chr>        <dbl>   <dbl>   <dbl> <int> <fct>       <fct>    <chr>   <lgl>  
 1 train/tes…   0.793  0.167   0.0396     1 1           1        Prepro… TRUE   
 2 train/tes…   0.699  0.186   0.115      3 1           1        Prepro… TRUE   
 3 train/tes…   0.949  0.0196  0.0309     4 1           1        Prepro… TRUE   
 4 train/tes…   0.367  0.380   0.254      7 2           3        Prepro… FALSE  
 5 train/tes…   0.322  0.388   0.290      8 2           3        Prepro… FALSE  
 6 train/tes…   0.441  0.455   0.104     14 2           2        Prepro… TRUE   
 7 train/tes…   0.406  0.369   0.225     22 1           1        Prepro… TRUE   
 8 train/tes…   0.642  0.242   0.116     27 1           2        Prepro… FALSE  
 9 train/tes…   0.355  0.317   0.328     28 1           3        Prepro… FALSE  
10 train/tes…   0.471  0.448   0.0814    34 1           1        Prepro… TRUE   
# ℹ 20 more rows
# ℹ 18 more variables: client_id <fct>, sex <fct>, marital_status <fct>,
#   grade <fct>, race <fct>, ethnicity <fct>, religion <fct>,
#   dsm_primary <fct>, dsm_secondary <fct>, dsm_overall <fct>,
#   re_start_house <fct>, primary_behavior <fct>, secondary_behavior <fct>,
#   bigs_sum <fct>, dass_anxiety_sum <fct>, dass_dep_sum <fct>,
#   dass_stress_sum <fct>, sog_sum <fct>
…
# Resampling results
# Manual resampling 
# A tibble: 1 × 6
  splits          id               .metrics .notes   .predictions .workflow 
  <list>          <chr>            <list>   <list>   <list>       <list>    
1 <split [87/30]> train/test split <tibble> <tibble> <tibble>     <workflow>

# A tibble: 1 × 3
  .metric     .estimator .estimate
  <chr>       <chr>          <dbl>
1 mn_log_loss multiclass      3.14

# A tibble: 30 × 27
   id         .pred_1 .pred_2 .pred_3  .row .pred_class phase1_3 .config correct
   <chr>        <dbl>   <dbl>   <dbl> <int> <fct>       <fct>    <chr>   <lgl>  
 1 train/tes…   0.926  0.0739  0          1 1           1        Prepro… TRUE   
 2 train/tes…   0.920  0.0799  0          3 1           1        Prepro… TRUE   
 3 train/tes…   0.922  0.0783  0          4 1           1        Prepro… TRUE   
 4 train/tes…   0.724  0.210   0.0667     7 1           3        Prepro… FALSE  
 5 train/tes…   0.646  0.201   0.153      8 1           3        Prepro… FALSE  
 6 train/tes…   0.719  0.216   0.0647    14 1           2        Prepro… FALSE  
 7 train/tes…   0.721  0.139   0.140     22 1           1        Prepro… TRUE   
 8 train/tes…   0.788  0.0761  0.135     27 1           2        Prepro… FALSE  
 9 train/tes…   0.926  0.0738  0         28 1           3        Prepro… FALSE  
10 train/tes…   0.769  0.231   0         34 1           1        Prepro… TRUE   
# ℹ 20 more rows
# ℹ 18 more variables: client_id <fct>, sex <fct>, marital_status <fct>,
#   grade <fct>, race <fct>, ethnicity <fct>, religion <fct>,
#   dsm_primary <fct>, dsm_secondary <fct>, dsm_overall <fct>,
#   re_start_house <fct>, primary_behavior <fct>, secondary_behavior <fct>,
#   bigs_sum <fct>, dass_anxiety_sum <fct>, dass_dep_sum <fct>,
#   dass_stress_sum <fct>, sog_sum <fct>
…
# Resampling results
# Manual resampling 
# A tibble: 1 × 6
  splits          id               .metrics .notes   .predictions .workflow 
  <list>          <chr>            <list>   <list>   <list>       <list>    
1 <split [87/30]> train/test split <tibble> <tibble> <tibble>     <workflow>

# A tibble: 1 × 3
  .metric     .estimator .estimate
  <chr>       <chr>          <dbl>
1 mn_log_loss multiclass     0.921

# A tibble: 30 × 27
   id         .pred_1 .pred_2 .pred_3  .row .pred_class phase1_3 .config correct
   <chr>        <dbl>   <dbl>   <dbl> <int> <fct>       <fct>    <chr>   <lgl>  
 1 train/tes…   0.667   0.227   0.107     1 1           1        Prepro… TRUE   
 2 train/tes…   0.167   0.5     0.333     3 2           1        Prepro… FALSE  
 3 train/tes…   0.667   0.227   0.107     4 1           1        Prepro… TRUE   
 4 train/tes…   0.167   0.5     0.333     7 2           3        Prepro… FALSE  
 5 train/tes…   0.667   0.227   0.107     8 1           3        Prepro… FALSE  
 6 train/tes…   0.167   0.5     0.333    14 2           2        Prepro… TRUE   
 7 train/tes…   0.167   0.5     0.333    22 2           1        Prepro… FALSE  
 8 train/tes…   0.667   0.227   0.107    27 1           2        Prepro… FALSE  
 9 train/tes…   0.667   0.227   0.107    28 1           3        Prepro… FALSE  
10 train/tes…   0.167   0.5     0.333    34 2           1        Prepro… FALSE  
# ℹ 20 more rows
# ℹ 18 more variables: client_id <fct>, sex <fct>, marital_status <fct>,
#   grade <fct>, race <fct>, ethnicity <fct>, religion <fct>,
#   dsm_primary <fct>, dsm_secondary <fct>, dsm_overall <fct>,
#   re_start_house <fct>, primary_behavior <fct>, secondary_behavior <fct>,
#   bigs_sum <fct>, dass_anxiety_sum <fct>, dass_dep_sum <fct>,
#   dass_stress_sum <fct>, sog_sum <fct>
…
# Resampling results
# Manual resampling 
# A tibble: 1 × 6
  splits          id               .metrics .notes   .predictions .workflow 
  <list>          <chr>            <list>   <list>   <list>       <list>    
1 <split [87/30]> train/test split <tibble> <tibble> <tibble>     <workflow>

# A tibble: 1 × 3
  .metric     .estimator .estimate
  <chr>       <chr>          <dbl>
1 mn_log_loss multiclass      14.4

# A tibble: 30 × 27
   id       .pred_1  .pred_2  .pred_3  .row .pred_class phase1_3 .config correct
   <chr>      <dbl>    <dbl>    <dbl> <int> <fct>       <fct>    <chr>   <lgl>  
 1 train/t…       1 2.09e-46 9.75e-72     1 1           1        Prepro… TRUE   
 2 train/t…       1 2.39e-45 9.74e-69     3 1           1        Prepro… TRUE   
 3 train/t…       1 4.30e-48 6.86e-72     4 1           1        Prepro… TRUE   
 4 train/t…       1 5.18e-42 3.32e-68     7 1           3        Prepro… FALSE  
 5 train/t…       1 8.28e-41 1.40e-67     8 1           3        Prepro… FALSE  
 6 train/t…       1 5.67e-42 5.62e-69    14 1           2        Prepro… FALSE  
 7 train/t…       1 3.67e-43 3.79e-68    22 1           1        Prepro… TRUE   
 8 train/t…       1 1.89e-45 2.48e-69    27 1           2        Prepro… FALSE  
 9 train/t…       1 4.51e-43 1.59e-67    28 1           3        Prepro… FALSE  
10 train/t…       1 2.17e-41 6.79e-69    34 1           1        Prepro… TRUE   
# ℹ 20 more rows
# ℹ 18 more variables: client_id <fct>, sex <fct>, marital_status <fct>,
#   grade <fct>, race <fct>, ethnicity <fct>, religion <fct>,
#   dsm_primary <fct>, dsm_secondary <fct>, dsm_overall <fct>,
#   re_start_house <fct>, primary_behavior <fct>, secondary_behavior <fct>,
#   bigs_sum <fct>, dass_anxiety_sum <fct>, dass_dep_sum <fct>,
#   dass_stress_sum <fct>, sog_sum <fct>
…
There were issues with some computations:

  - Warning(s) x1: Variable(s) `' constant. Cannot scale data.

Run `show_notes(.Last.tune.result)` for more information.

# A tibble: 1 × 3
  .metric     .estimator .estimate
  <chr>       <chr>          <dbl>
1 mn_log_loss multiclass     0.775

# A tibble: 30 × 27
   id         .pred_1 .pred_2 .pred_3  .row .pred_class phase1_3 .config correct
   <chr>        <dbl>   <dbl>   <dbl> <int> <fct>       <fct>    <chr>   <lgl>  
 1 train/tes…   0.754   0.193  0.0534     1 1           1        Prepro… TRUE   
 2 train/tes…   0.650   0.209  0.141      3 1           1        Prepro… TRUE   
 3 train/tes…   0.802   0.135  0.0631     4 1           1        Prepro… TRUE   
 4 train/tes…   0.328   0.425  0.247      7 1           3        Prepro… FALSE  
 5 train/tes…   0.300   0.431  0.269      8 1           3        Prepro… FALSE  
 6 train/tes…   0.468   0.368  0.164     14 1           2        Prepro… FALSE  
 7 train/tes…   0.348   0.355  0.297     22 1           1        Prepro… TRUE   
 8 train/tes…   0.689   0.221  0.0903    27 1           2        Prepro… FALSE  
 9 train/tes…   0.348   0.233  0.419     28 1           3        Prepro… FALSE  
10 train/tes…   0.391   0.492  0.117     34 1           1        Prepro… TRUE   
# ℹ 20 more rows
# ℹ 18 more variables: client_id <fct>, sex <fct>, marital_status <fct>,
#   grade <fct>, race <fct>, ethnicity <fct>, religion <fct>,
#   dsm_primary <fct>, dsm_secondary <fct>, dsm_overall <fct>,
#   re_start_house <fct>, primary_behavior <fct>, secondary_behavior <fct>,
#   bigs_sum <fct>, dass_anxiety_sum <fct>, dass_dep_sum <fct>,
#   dass_stress_sum <fct>, sog_sum <fct>
…
